{
  "pageNo": 1,
  "pageSize": 20,
  "totalRows": 65,
  "totalPages": 4,
  "rows": [
    {
      "id": 1,
      "vehicleId": 1000007,
      "eleName": "整车数据",
      "signalName": "车辆状态",
      "signalValue": "0x01",
      "time": 1480297049721
    },
    {
      "id": 1,
      "vehicleId": 1000007,
      "eleName": "整车数据",
      "signalName": "充电状态",
      "signalValue": "0x02",
      "time": 1480297049721
    },
    {
      "id": 1,
      "vehicleId": 1000007,
      "eleName": "整车数据",
      "signalName": "运行模式",
      "signalValue": "0x01",
      "time": 1480297049721
    },
    {
      "id": 1,
      "vehicleId": 1000007,
      "eleName": "整车数据",
      "signalName": "车速",
      "signalValue": "220km/h",
      "time": 1480297049721
    },
    {
      "id": 1,
      "vehicleId": 1000007,
      "eleName": "整车数据",
      "signalName": "累计里程",
      "signalValue": "10000km",
      "time": 1480297049721
    },
    {
      "id": 1,
      "vehicleId": 1000007,
      "eleName": "整车数据",
      "signalName": "总电压",
      "signalValue": "1000V",
      "time": 1480297049721
    },
    {
      "id": 1,
      "vehicleId": 1000007,
      "eleName": "整车数据",
      "signalName": "总电流",
      "signalValue": "1000A",
      "time": 1480297049721
    },
    {
      "id": 1,
      "vehicleId": 1000007,
      "eleName": "整车数据",
      "signalName": "SOC",
      "signalValue": "100",
      "time": 1480297049721
    },
    {
      "id": 1,
      "vehicleId": 1000007,
      "eleName": "整车数据",
      "signalName": "DC-DC状态",
      "signalValue": "0x01",
      "time": 1480297049721
    },
    {
      "id": 1,
      "vehicleId": 1000007,
      "eleName": "整车数据",
      "signalName": "档位",
      "signalValue": "0001",
      "time": 1480297049721
    },
    {
      "id": 1,
      "vehicleId": 1000007,
      "eleName": "整车数据",
      "signalName": "绝缘电阻",
      "signalValue": "60000",
      "time": 1480297049721
    },
    {
      "id": 1,
      "vehicleId": 1000007,
      "eleName": "驱动电机数据",
      "signalName": "驱动电机个数",
      "signalValue": "253",
      "time": 1480297049721
    },
    {
      "id": 1,
      "vehicleId": 1000007,
      "eleName": "驱动电机数据",
      "signalName": "驱动电机总成信息列表",
      "signalValue": "",
      "time": 1480297049721
    },
    {
      "id": 1,
      "vehicleId": 1000007,
      "eleName": "驱动电机数据",
      "signalName": "驱动电机序号",
      "signalValue": "253",
      "time": 1480297049721
    },
    {
      "id": 1,
      "vehicleId": 1000007,
      "eleName": "驱动电机数据",
      "signalName": "驱动电机状态",
      "signalValue": "0x01",
      "time": 1480297049721
    },
    {
      "id": 1,
      "vehicleId": 1000007,
      "eleName": "驱动电机数据",
      "signalName": "驱动电机控制器温度",
      "signalValue": "250",
      "time": 1480297049721
    },
    {
      "id": 1,
      "vehicleId": 1000007,
      "eleName": "驱动电机数据",
      "signalName": "驱动电机转速",
      "signalValue": "65531",
      "time": 1480297049721
    },
    {
      "id": 1,
      "vehicleId": 1000007,
      "eleName": "驱动电机数据",
      "signalName": "驱动电机转矩",
      "signalValue": "65531",
      "time": 1480297049721
    },
    {
      "id": 1,
      "vehicleId": 1000007,
      "eleName": "驱动电机数据",
      "signalName": "驱动电机温度",
      "signalValue": "250",
      "time": 1480297049721
    },
    {
      "id": 1,
      "vehicleId": 1000007,
      "eleName": "驱动电机数据",
      "signalName": "电机控制器输入电压",
      "signalValue": "60000",
      "time": 1480297049721
    },
    {
      "id": 1,
      "vehicleId": 1000007,
      "eleName": "驱动电机数据",
      "signalName": "电机控制器直流母线电流",
      "signalValue": "20000",
      "time": 1480297049721
    },
    {
      "id": 1,
      "vehicleId": 1000007,
      "eleName": "燃料电池数据",
      "signalName": "燃料电池电压",
      "signalValue": "2000V",
      "time": 1480297049721
    },
    {
      "id": 1,
      "vehicleId": 1000007,
      "eleName": "燃料电池数据",
      "signalName": "燃料电池电流",
      "signalValue": "2000V",
      "time": 1480297049721
    },
    {
      "id": 1,
      "vehicleId": 1000007,
      "eleName": "燃料电池数据",
      "signalName": "燃料消耗率",
      "signalValue": "60000",
      "time": 1480297049721
    },
    {
      "id": 1,
      "vehicleId": 1000007,
      "eleName": "燃料电池数据",
      "signalName": "燃料电池温度探针总数",
      "signalValue": "65531",
      "time": 1480297049721
    },
    {
      "id": 1,
      "vehicleId": 1000007,
      "eleName": "燃料电池数据",
      "signalName": "探针温度值",
      "signalValue": "240",
      "time": 1480297049721
    },
    {
      "id": 1,
      "vehicleId": 1000007,
      "eleName": "燃料电池数据",
      "signalName": "氢系统中最高温度",
      "signalValue": "2400",
      "time": 1480297049721
    },
    {
      "id": 1,
      "vehicleId": 1000007,
      "eleName": "燃料电池数据",
      "signalName": "氢系统中最高温度探针代号",
      "signalValue": "252",
      "time": 1480297049721
    },
    {
      "id": 1,
      "vehicleId": 1000007,
      "eleName": "燃料电池数据",
      "signalName": "氢气最高浓度",
      "signalValue": "60000",
      "time": 1480297049721
    },
    {
      "id": 1,
      "vehicleId": 1000007,
      "eleName": "燃料电池数据",
      "signalName": "氢气最高浓度传感器代号",
      "signalValue": "252",
      "time": 1480297049721
    },
    {
      "id": 1,
      "vehicleId": 1000007,
      "eleName": "燃料电池数据",
      "signalName": "氢气最高压力",
      "signalValue": "1000",
      "time": 1480297049721
    },
    {
      "id": 1,
      "vehicleId": 1000007,
      "eleName": "燃料电池数据",
      "signalName": "氢气最高压力传感器代号",
      "signalValue": "252",
      "time": 1480297049721
    },
    {
      "id": 1,
      "vehicleId": 1000007,
      "eleName": "燃料电池数据",
      "signalName": "高压DC/DC 状态",
      "signalValue": "0x01",
      "time": 1480297049721
    },
    {
      "id": 1,
      "vehicleId": 1000007,
      "eleName": "发动机数据",
      "signalName": "发动机状态",
      "signalValue": "0x01",
      "time": 1480297049721
    },
    {
      "id": 1,
      "vehicleId": 1000007,
      "eleName": "发动机数据",
      "signalName": "曲向转速",
      "signalValue": "60000",
      "time": 1480297049721
    },
    {
      "id": 1,
      "vehicleId": 1000007,
      "eleName": "发动机数据",
      "signalName": "燃料消耗率",
      "signalValue": "60000",
      "time": 1480297049721
    },
    {
      "id": 1,
      "vehicleId": 1000007,
      "eleName": "车辆位置数据",
      "signalName": "定位状态",
      "signalValue": "1",
      "time": 1480297049721
    },
    {
      "id": 1,
      "vehicleId": 1000007,
      "eleName": "车辆位置数据",
      "signalName": "经度",
      "signalValue": "104.192078",
      "time": 1480297049721
    },
    {
      "id": 1,
      "vehicleId": 1000007,
      "eleName": "车辆位置数据",
      "signalName": "纬度",
      "signalValue": "30.636128",
      "time": 1480297049721
    },
    {
      "id": 1,
      "vehicleId": 1000007,
      "eleName": "极值数据",
      "signalName": "最高电压电池子系统号",
      "signalValue": "250",
      "time": 1480297049721
    },
    {
      "id": 1,
      "vehicleId": 1000007,
      "eleName": "极值数据",
      "signalName": "最高电压电池单体代号",
      "signalValue": "250",
      "time": 1480297049721
    },
    {
      "id": 1,
      "vehicleId": 1000007,
      "eleName": "极值数据",
      "signalName": "电池单体电压最高值",
      "signalValue": "15000",
      "time": 1480297049721
    },
    {
      "id": 1,
      "vehicleId": 1000007,
      "eleName": "极值数据",
      "signalName": "最低电压电池子系统号",
      "signalValue": "250",
      "time": 1480297049721
    },
    {
      "id": 1,
      "vehicleId": 1000007,
      "eleName": "极值数据",
      "signalName": "最低电压电池单体代号",
      "signalValue": "250",
      "time": 1480297049721
    },
    {
      "id": 1,
      "vehicleId": 1000007,
      "eleName": "极值数据",
      "signalName": "电池单体电压最低值",
      "signalValue": "250",
      "time": 1480297049721
    },
    {
      "id": 1,
      "vehicleId": 1000007,
      "eleName": "极值数据",
      "signalName": "最高温度子系统号",
      "signalValue": "250",
      "time": 1480297049721
    },
    {
      "id": 1,
      "vehicleId": 1000007,
      "eleName": "极值数据",
      "signalName": "最高温度探针序号",
      "signalValue": "250",
      "time": 1480297049721
    },
    {
      "id": 1,
      "vehicleId": 1000007,
      "eleName": "极值数据",
      "signalName": "最高温度值",
      "signalValue": "250",
      "time": 1480297049721
    },
    {
      "id": 1,
      "vehicleId": 1000007,
      "eleName": "极值数据",
      "signalName": "最低温度子系统号",
      "signalValue": "250",
      "time": 1480297049721
    },
    {
      "id": 1,
      "vehicleId": 1000007,
      "eleName": "极值数据",
      "signalName": "最低温度探针序号",
      "signalValue": "250",
      "time": 1480297049721
    },
    {
      "id": 1,
      "vehicleId": 1000007,
      "eleName": "极值数据",
      "signalName": "最低温度值",
      "signalValue": "250",
      "time": 1480297049721
    },
    {
      "id": 1,
      "vehicleId": 1000007,
      "eleName": "报警数据",
      "signalName": "最高报警等级",
      "signalValue": "1",
      "time": 1480297049721
    },
    {
      "id": 1,
      "vehicleId": 1000007,
      "eleName": "报警数据",
      "signalName": "通用报警标志",
      "signalValue": "1",
      "time": 1480297049721
    },
    {
      "id": 1,
      "vehicleId": 1000007,
      "eleName": "报警数据",
      "signalName": "可充电储能装置故障总数",
      "signalValue": "252",
      "time": 1480297049721
    },
    {
      "id": 1,
      "vehicleId": 1000007,
      "eleName": "报警数据",
      "signalName": "驱动电机故障总数",
      "signalValue": "252",
      "time": 1480297049721
    },
    {
      "id": 1,
      "vehicleId": 1000007,
      "eleName": "报警数据",
      "signalName": "发动机故障总数",
      "signalValue": "252",
      "time": 1480297049721
    },
    {
      "id": 1,
      "vehicleId": 1000007,
      "eleName": "报警数据",
      "signalName": "其他故障总数",
      "signalValue": "252",
      "time": 1480297049721
    }
  ]
}