{
  "pageNo": 1,
  "pageSize": 20,
  "totalRows": 65,
  "totalPages": 4,
  "rows": [
    {
      "id": 1,
      "vehicleId": 1000007,
      "signalName": "最高报警等级",
      "signalValue": "1",
      "signalMax": "0~3",
      "type": "信号故障提示",
      "detail": "1表示不影响车辆行驶的故障",
      "time": 1480297049721
    },
    {
      "id": 1,
      "vehicleId": 1000007,
      "signalName": "通用报警标志",
      "signalValue": "1",
      "signalMax": "0~1",
      "type": "信号故障预警",
      "detail": "1:温度差异报警，0:正常",
      "time": 1480297049721
    },
    {
      "id": 1,
      "vehicleId": 1000007,
      "signalName": "通用报警标志",
      "signalValue": "1",
      "signalMax": "0~1",
      "type": "信号故障预警",
      "detail": "1:电池高温报警，0:正常",
      "time": 1480297049721
    },
    {
      "id": 1,
      "vehicleId": 1000007,
      "signalName": "通用报警标志",
      "signalValue": "1",
      "signalMax": "0~1",
      "type": "信号故障预警",
      "detail": "1:车载储能装置类型过压报警，0:正常",
      "time": 1480297049721
    },
    {
      "id": 1,
      "vehicleId": 1000007,
      "signalName": "通用报警标志",
      "signalValue": "1",
      "signalMax": "0~1",
      "type": "信号故障预警",
      "detail": "1:车载储能装置类型欠压报警，0:正常",
      "time": 1480297049721
    },
    {
      "id": 1,
      "vehicleId": 1000007,
      "signalName": "通用报警标志",
      "signalValue": "1",
      "signalMax": "0~1",
      "type": "信号故障预警",
      "detail": "1:SOC低报警，0:正常",
      "time": 1480297049721
    },
    {
      "id": 1,
      "vehicleId": 1000007,
      "signalName": "通用报警标志",
      "signalValue": "1",
      "signalMax": "0~1",
      "type": "信号故障预警",
      "detail": "1:单体电池过压报警，0:正常",
      "time": 1480297049721
    },
    {
      "id": 1,
      "vehicleId": 1000007,
      "signalName": "通用报警标志",
      "signalValue": "1",
      "signalMax": "0~1",
      "type": "信号故障预警",
      "detail": "1:单体电池欠压报警，0:正常",
      "time": 1480297049721
    },
    {
      "id": 1,
      "vehicleId": 1000007,
      "signalName": "通用报警标志",
      "signalValue": "1",
      "signalMax": "0~1",
      "type": "信号故障预警",
      "detail": "1:SOC过高报警，0:正常",
      "time": 1480297049721
    },
    {
      "id": 1,
      "vehicleId": 1000007,
      "signalName": "通用报警标志",
      "signalValue": "1",
      "signalMax": "0~1",
      "type": "信号故障预警",
      "detail": "1:SOC跳变报警，0:正常",
      "time": 1480297049721
    },
    {
      "id": 1,
      "vehicleId": 1000007,
      "signalName": "通用报警标志",
      "signalValue": "1",
      "signalMax": "0~1",
      "type": "信号故障预警",
      "detail": "1:可充电储能系统不匹配报警，0:正常",
      "time": 1480297049721
    },
    {
      "id": 1,
      "vehicleId": 1000007,
      "signalName": "通用报警标志",
      "signalValue": "1",
      "signalMax": "0~1",
      "type": "信号故障预警",
      "detail": "1:电池单体一致性差报警，0:正常",
      "time": 1480297049721
    },
    {
      "id": 1,
      "vehicleId": 1000007,
      "signalName": "通用报警标志",
      "signalValue": "1",
      "signalMax": "0~1",
      "type": "信号故障预警",
      "detail": "1:绝缘报警，0:正常",
      "time": 1480297049721
    },
    {
      "id": 1,
      "vehicleId": 1000007,
      "signalName": "通用报警标志",
      "signalValue": "1",
      "signalMax": "0~1",
      "type": "信号故障预警",
      "detail": "1:DC-DC温度报警，0:正常",
      "time": 1480297049721
    },
    {
      "id": 1,
      "vehicleId": 1000007,
      "signalName": "通用报警标志",
      "signalValue": "1",
      "signalMax": "0~1",
      "type": "信号故障预警",
      "detail": "1:制动系统报警，0:正常",
      "time": 1480297049721
    },
    {
      "id": 1,
      "vehicleId": 1000007,
      "signalName": "通用报警标志",
      "signalValue": "1",
      "signalMax": "0~1",
      "type": "信号故障预警",
      "detail": "1:DC-DC状态报警，0:正常",
      "time": 1480297049721
    },
    {
      "id": 1,
      "vehicleId": 1000007,
      "signalName": "通用报警标志",
      "signalValue": "1",
      "signalMax": "0~1",
      "type": "信号故障预警",
      "detail": "1:驱动电机控制器温度报警，0:正常",
      "time": 1480297049721
    },
    {
      "id": 1,
      "vehicleId": 1000007,
      "signalName": "通用报警标志",
      "signalValue": "1",
      "signalMax": "0~1",
      "type": "信号故障预警",
      "detail": "1:高压互锁状态报警，0:正常",
      "time": 1480297049721
    },
    {
      "id": 1,
      "vehicleId": 1000007,
      "signalName": "通用报警标志",
      "signalValue": "1",
      "signalMax": "0~1",
      "type": "信号故障预警",
      "detail": "1:驱动电机温度报警，0:正常",
      "time": 1480297049721
    },
    {
      "id": 1,
      "vehicleId": 1000007,
      "signalName": "通用报警标志",
      "signalValue": "1",
      "signalMax": "0~1",
      "type": "信号故障预警",
      "detail": "1:车载储能装置类型过充，0:正常",
      "time": 1480297049721
    },
    {
      "id": 1,
      "vehicleId": 1000007,
      "signalName": "可充电储能装置故障总数N1",
      "signalValue": "1",
      "signalMax": "0~252",
      "type": "信号故障预警",
      "detail": "N1个可充电储能装置故障",
      "time": 1480297049721
    },
    {
      "id": 1,
      "vehicleId": 1000007,
      "signalName": "驱动电机故障总数N2",
      "signalValue": "1",
      "signalMax": "0~252",
      "type": "信号故障预警",
      "detail": "N2个驱动电机故障",
      "time": 1480297049721
    },
    {
      "id": 1,
      "vehicleId": 1000007,
      "signalName": "发动机故障总数N3",
      "signalValue": "1",
      "signalMax": "0~252",
      "type": "信号故障预警",
      "detail": "N3个发动机故障",
      "time": 1480297049721
    },
    {
      "id": 1,
      "vehicleId": 1000007,
      "signalName": "其他故障总数N4",
      "signalValue": "1",
      "signalMax": "0~252",
      "type": "信号故障预警",
      "detail": "N4个其他故障",
      "time": 1480297049721
    }
  ]
}